./run-csv-parser.sh: line 1: 11845 Killed                  java -classpath "/opt/erlang/lib/erlang/lib/jinterface-1.4.2/priv/OtpErlang.jar:./javacsv.jar:./log4j-1.2.15.jar:." CSVParser
./run-csv-parser.sh: line 1: 30041 Killed                  java -classpath "/opt/erlang/lib/erlang/lib/jinterface-1.4.2/priv/OtpErlang.jar:./javacsv.jar:./log4j-1.2.15.jar:." CSVParser
./run-csv-parser.sh: line 1: 24506 Killed                  java -classpath "/opt/erlang/lib/erlang/lib/jinterface-1.4.2/priv/OtpErlang.jar:./javacsv.jar:./log4j-1.2.15.jar:." CSVParser
./run-csv-parser.sh: line 1: 32438 Killed                  java -classpath "/opt/erlang/lib/erlang/lib/jinterface-1.4.2/priv/OtpErlang.jar:./javacsv.jar:./log4j-1.2.15.jar:." CSVParser
./run-csv-parser.sh: line 1:  3225 Killed                  java -classpath "/opt/erlang/lib/erlang/lib/jinterface-1.4.2/priv/OtpErlang.jar:./javacsv.jar:./log4j-1.2.15.jar:." CSVParser
./run-csv-parser.sh: line 1:  3921 Killed                  java -classpath "/opt/erlang/lib/erlang/lib/jinterface-1.4.2/priv/OtpErlang.jar:./javacsv.jar:./log4j-1.2.15.jar:." CSVParser
./run-csv-parser.sh: line 1:  1338 Killed                  java -classpath "/opt/erlang/lib/erlang/lib/jinterface-1.4.2/priv/OtpErlang.jar:./javacsv.jar:./log4j-1.2.15.jar:." CSVParser
./run-csv-parser.sh: line 1:  9323 Killed                  java -classpath "/opt/erlang/lib/erlang/lib/jinterface-1.4.2/priv/OtpErlang.jar:./javacsv.jar:./log4j-1.2.15.jar:." CSVParser
